{
  "potentialAction": "",
  "identifier": "",
  "sameAs": "",
  "url": "",
  "image": "",
  "alternateName": "",
  "name": "",
  "description": "",
  "mainEntityOfPage": "",
  "disambiguatingDescription": "",
  "subjectOf": "",
  "additionalType": "LocalBusiness",
  "engage": {
    "Place": {
      "maximumAttendeeCapacity": 0,
      "geoCrosses": "",
      "aggregateRating": "",
      "reviews": "",
      "photos": "",
      "map": "",
      "geoCoveredBy": "",
      "branchCode": "",
      "hasMap": "",
      "longitude": "",
      "additionalProperty": "",
      "containedIn": "",
      "geoWithin": "",
      "hasDriveThroughService": 0,
      "geoContains": "",
      "latitude": "",
      "openingHoursSpecification": "",
      "faxNumber": "",
      "geoIntersects": "",
      "geoOverlaps": "",
      "smokingAllowed": 0,
      "globalLocationNumber": "",
      "review": "",
      "event": "",
      "containsPlace": "",
      "geoTouches": "",
      "geoDisjoint": "",
      "isicV4": "",
      "slogan": "",
      "containedInPlace": "",
      "photo": "",
      "events": "",
      "isAccessibleForFree": 0,
      "publicAccess": 0,
      "maps": "",
      "address": "",
      "tourBookingPage": "",
      "specialOpeningHoursSpecification": "",
      "logo": "",
      "amenityFeature": "",
      "telephone": "",
      "geo": "",
      "geoCovers": "",
      "geoEquals": ""
    },
    "Organization": {
      "members": "",
      "knowsAbout": "",
      "correctionsPolicy": "",
      "aggregateRating": "",
      "hasProductReturnPolicy": "",
      "diversityPolicy": "",
      "duns": "",
      "taxID": "",
      "reviews": "",
      "award": "",
      "makesOffer": "",
      "contactPoints": "",
      "awards": "",
      "foundingDate": "",
      "ownershipFundingInfo": "",
      "founders": "",
      "seeks": "",
      "member": "",
      "serviceArea": "",
      "funder": "",
      "actionableFeedbackPolicy": "",
      "areaServed": "",
      "unnamedSourcesPolicy": "",
      "faxNumber": "",
      "subOrganization": "",
      "hasOfferCatalog": "",
      "globalLocationNumber": "",
      "foundingLocation": "",
      "review": "",
      "owns": "",
      "sponsor": "",
      "event": "",
      "founder": "",
      "publishingPrinciples": "",
      "isicV4": "",
      "slogan": "",
      "location": "",
      "brand": "",
      "memberOf": "",
      "vatID": "",
      "hasCredential": "",
      "knowsLanguage": "",
      "events": "",
      "diversityStaffingReport": "",
      "nonprofitStatus": "",
      "address": "",
      "alumni": "",
      "dissolutionDate": "",
      "interactionStatistic": "",
      "logo": "",
      "employees": "",
      "telephone": "",
      "hasMerchantReturnPolicy": "",
      "email": "",
      "department": "",
      "contactPoint": "",
      "parentOrganization": "",
      "ethicsPolicy": "",
      "legalName": "",
      "leiCode": "",
      "employee": "",
      "numberOfEmployees": "",
      "naics": "",
      "hasPOS": ""
    },
    "LocalBusiness": {
      "priceRange": "",
      "openingHours": "",
      "currenciesAccepted": "",
      "branchOf": "",
      "paymentAccepted": ""
    }
  }
}
